---
http_interactions:
- request:
    method: post
    uri: https://mais-uat.auth.us-west-2.amazoncognito.com/oauth2/token
    body:
      encoding: UTF-8
      string: client_id=abc123&client_secret=def456&grant_type=client_credentials
    headers:
      User-Agent:
      - Faraday v2.13.1
      Content-Type:
      - application/x-www-form-urlencoded
      Accept-Encoding:
      - gzip;q=1.0,deflate;q=0.6,identity;q=0.3
      Accept:
      - "*/*"
  response:
    status:
      code: 200
      message: OK
    headers:
      Date:
      - Tue, 29 Apr 2025 21:08:03 GMT
      Content-Type:
      - application/json;charset=UTF-8
      Transfer-Encoding:
      - chunked
      Connection:
      - keep-alive
      Set-Cookie:
      - XSRF-TOKEN=037b9e78-4c0e-44c1-8896-f984261e3813; Path=/; Secure; HttpOnly;
        SameSite=Lax
      X-Amz-Cognito-Request-Id:
      - 2b196a1b-a063-4e14-9977-6af3da27987d
      X-Content-Type-Options:
      - nosniff
      X-Xss-Protection:
      - 1; mode=block
      Cache-Control:
      - no-cache, no-store, max-age=0, must-revalidate
      Pragma:
      - no-cache
      Expires:
      - '0'
      Strict-Transport-Security:
      - max-age=31536000 ; includeSubDomains
      X-Frame-Options:
      - DENY
      Server:
      - Server
    body:
      encoding: UTF-8
      string: '{"access_token":"private_access_token","expires_in":300,"token_type":"Bearer"}'
  recorded_at: Tue, 29 Apr 2025 21:08:03 GMT
- request:
    method: get
    uri: https://mais.suapiuat.stanford.edu/orcid/v1/users?page_size=2&scope=ANY
    body:
      encoding: US-ASCII
      string: ''
    headers:
      User-Agent:
      - stanford-library-sul-pub
      Authorization:
      - Bearer private_bearer_token
      Accept-Encoding:
      - gzip;q=1.0,deflate;q=0.6,identity;q=0.3
      Accept:
      - "*/*"
  response:
    status:
      code: 200
      message: OK
    headers:
      Date:
      - Tue, 29 Apr 2025 21:08:04 GMT
      Content-Type:
      - application/json
      Content-Length:
      - '763'
      Connection:
      - keep-alive
      X-Amzn-Requestid:
      - ce734697-4376-42f4-aa2f-685d60089a61
      X-Sl-Asseturipath:
      - "/api/1/rest/feed-master/queue/StanfordUAT/Mais/Orcid/users"
      Referrer-Policy:
      - strict-origin
      X-Xss-Protection:
      - 1; mode=block
      Strict-Transport-Security:
      - max-age=31536000; includeSubDomains;
      X-Amzn-Remapped-Content-Length:
      - '763'
      X-Frame-Options:
      - SAMEORIGIN
      Content-Security-Policy:
      - default-src 'self'; font-src *;img-src * data:; script-src *; style-src *;
      X-Sl-Proxy:
      - 'false'
      X-Sl-Clientip:
      - 172.20.21.210
      X-Amz-Apigw-Id:
      - JzbkMEECPHcETQQ=
      Status:
      - '200'
      X-Sl-Pathinfo:
      - ''
      X-Content-Type-Options:
      - nosniff
      X-Sl-Assetpath:
      - "/StanfordUAT/Mais/Orcid/users"
      X-Sl-Authorized:
      - 'true'
      X-Amzn-Remapped-Date:
      - Tue, 29 Apr 2025 21:08:04 GMT
    body:
      encoding: UTF-8
      string: '{"meta":{"current_page":1,"total_records":12,"page_size":2,"total_pages":6},"results":[{"sunet_id":"tdelcont","orcid_id":"https://sandbox.orcid.org/0000-0002-4589-7232","access_token":"private_access_token","scope":["/read-limited"],"last_updated":"2021-05-07T22:11:00.000"},{"sunet_id":"jlittman","orcid_id":"https://sandbox.orcid.org/0000-0003-3437-349X","access_token":"private_access_token","scope":["/read-limited","/activities/update","/person/update"],"last_updated":"2021-05-14T05:04:24.000"}],"links":{"self":"/users?scope=any&page_number=1&page_size=2","first":"/users?scope=any&page_number=1&page_size=2","prev":"","next":"/users?scope=any&page_number=2&page_size=2","last":"/users?scope=any&page_number=6&page_size=2"}}'
  recorded_at: Tue, 29 Apr 2025 21:08:04 GMT
- request:
    method: get
    uri: https://mais.suapiuat.stanford.edu/orcid/v1/users?page_number=2&page_size=2&scope=any
    body:
      encoding: US-ASCII
      string: ''
    headers:
      User-Agent:
      - stanford-library-sul-pub
      Authorization:
      - Bearer private_bearer_token
      Accept-Encoding:
      - gzip;q=1.0,deflate;q=0.6,identity;q=0.3
      Accept:
      - "*/*"
  response:
    status:
      code: 200
      message: OK
    headers:
      Date:
      - Tue, 29 Apr 2025 21:08:04 GMT
      Content-Type:
      - application/json
      Content-Length:
      - '839'
      Connection:
      - keep-alive
      X-Amzn-Requestid:
      - 18d862ab-c676-42c7-b525-ac982182c894
      X-Sl-Asseturipath:
      - "/api/1/rest/feed-master/queue/StanfordUAT/Mais/Orcid/users"
      Referrer-Policy:
      - strict-origin
      X-Xss-Protection:
      - 1; mode=block
      Strict-Transport-Security:
      - max-age=31536000; includeSubDomains;
      X-Amzn-Remapped-Content-Length:
      - '839'
      X-Frame-Options:
      - SAMEORIGIN
      Content-Security-Policy:
      - default-src 'self'; font-src *;img-src * data:; script-src *; style-src *;
      X-Sl-Proxy:
      - 'false'
      X-Sl-Clientip:
      - 172.20.21.210
      X-Amz-Apigw-Id:
      - JzbkQHKSvHcEuAQ=
      Status:
      - '200'
      X-Sl-Pathinfo:
      - ''
      X-Content-Type-Options:
      - nosniff
      X-Sl-Assetpath:
      - "/StanfordUAT/Mais/Orcid/users"
      X-Sl-Authorized:
      - 'true'
      X-Amzn-Remapped-Date:
      - Tue, 29 Apr 2025 21:08:04 GMT
    body:
      encoding: UTF-8
      string: '{"meta":{"current_page":2,"total_records":12,"page_size":2,"total_pages":6},"results":[{"sunet_id":"ddieckma","orcid_id":"https://sandbox.orcid.org/0000-0002-4481-5100","access_token":"private_access_token","scope":["/read-limited","/activities/update","/person/update"],"last_updated":"2021-05-14T09:27:54.000"},{"sunet_id":"muet","orcid_id":"https://sandbox.orcid.org/0000-0001-5226-468X","access_token":"private_access_token","scope":["/read-limited","/activities/update","/person/update"],"last_updated":"2021-05-14T09:46:44.000"}],"links":{"self":"/users?scope=any&page_number=2&page_size=2","first":"/users?scope=any&page_number=1&page_size=2","prev":"/users?scope=any&page_number=1&page_size=2","next":"/users?scope=any&page_number=3&page_size=2","last":"/users?scope=any&page_number=6&page_size=2"}}'
  recorded_at: Tue, 29 Apr 2025 21:08:04 GMT
- request:
    method: get
    uri: https://mais.suapiuat.stanford.edu/orcid/v1/users?page_number=3&page_size=2&scope=any
    body:
      encoding: US-ASCII
      string: ''
    headers:
      User-Agent:
      - stanford-library-sul-pub
      Authorization:
      - Bearer private_bearer_token
      Accept-Encoding:
      - gzip;q=1.0,deflate;q=0.6,identity;q=0.3
      Accept:
      - "*/*"
  response:
    status:
      code: 200
      message: OK
    headers:
      Date:
      - Tue, 29 Apr 2025 21:08:04 GMT
      Content-Type:
      - application/json
      Content-Length:
      - '839'
      Connection:
      - keep-alive
      X-Amzn-Requestid:
      - 5f499890-dffd-425d-b31f-4974eb852258
      X-Sl-Asseturipath:
      - "/api/1/rest/feed-master/queue/StanfordUAT/Mais/Orcid/users"
      Referrer-Policy:
      - strict-origin
      X-Xss-Protection:
      - 1; mode=block
      Strict-Transport-Security:
      - max-age=31536000; includeSubDomains;
      X-Amzn-Remapped-Content-Length:
      - '839'
      X-Frame-Options:
      - SAMEORIGIN
      Content-Security-Policy:
      - default-src 'self'; font-src *;img-src * data:; script-src *; style-src *;
      X-Sl-Proxy:
      - 'false'
      X-Sl-Clientip:
      - 172.20.21.210
      X-Amz-Apigw-Id:
      - JzbkTHILPHcEi6w=
      Status:
      - '200'
      X-Sl-Pathinfo:
      - ''
      X-Content-Type-Options:
      - nosniff
      X-Sl-Assetpath:
      - "/StanfordUAT/Mais/Orcid/users"
      X-Sl-Authorized:
      - 'true'
      X-Amzn-Remapped-Date:
      - Tue, 29 Apr 2025 21:08:04 GMT
    body:
      encoding: UTF-8
      string: '{"meta":{"current_page":3,"total_records":12,"page_size":2,"total_pages":6},"results":[{"sunet_id":"amyhodge","orcid_id":"https://sandbox.orcid.org/0000-0002-4933-2837","access_token":"private_access_token","scope":["/read-limited","/activities/update","/person/update"],"last_updated":"2021-05-27T14:46:58.000"},{"sunet_id":"jtim","orcid_id":"https://sandbox.orcid.org/0000-0002-7262-6251","access_token":"private_access_token","scope":["/read-limited","/activities/update","/person/update"],"last_updated":"2021-05-28T08:15:07.000"}],"links":{"self":"/users?scope=any&page_number=3&page_size=2","first":"/users?scope=any&page_number=1&page_size=2","prev":"/users?scope=any&page_number=2&page_size=2","next":"/users?scope=any&page_number=4&page_size=2","last":"/users?scope=any&page_number=6&page_size=2"}}'
  recorded_at: Tue, 29 Apr 2025 21:08:04 GMT
recorded_with: VCR 6.3.1
